<?xml version="1.0" encoding="UTF-8"?>
<svg xmlns="http://www.w3.org/2000/svg" xmlns:xlink="http://www.w3.org/1999/xlink" width="141pt" height="80pt" viewBox="0 0 141 80" version="1.1">
<defs>
<g>
<symbol overflow="visible" id="glyph0-0">
<path style="stroke:none;" d=""/>
</symbol>
<symbol overflow="visible" id="glyph0-1">
<path style="stroke:none;" d="M 4.65625 -0.1875 L 5.8125 -4.734375 L 4.796875 -4.734375 L 3.953125 -1 L 4.34375 -1 L 3.28125 -4.734375 L 2.40625 -4.734375 L 1.375 -1 L 1.765625 -1 L 0.90625 -4.734375 L -0.109375 -4.734375 L 1.109375 0 L 2 0 L 3.03125 -3.78125 L 2.640625 -3.78125 L 3.703125 0 L 4.609375 0 Z M 4.65625 -0.1875 "/>
</symbol>
<symbol overflow="visible" id="glyph0-2">
<path style="stroke:none;" d="M 3.265625 -1.578125 C 3.265625 -2.0625 3.234375 -2.359375 3.140625 -2.59375 C 2.9375 -3.109375 2.265625 -3.59375 1.6875 -3.59375 C 0.796875 -3.59375 0.046875 -2.75 0.046875 -1.703125 C 0.046875 -0.671875 0.78125 0.140625 1.671875 0.140625 C 2.390625 0.140625 3.078125 -0.453125 3.234375 -1.3125 L 2.375 -1.3125 C 2.171875 -0.71875 2.09375 -0.6875 1.6875 -0.6875 C 1.375 -0.6875 1.234375 -0.78125 1.0625 -1.03125 C 0.9375 -1.21875 0.953125 -1.265625 0.953125 -1.40625 L 3.265625 -1.40625 Z M 0.96875 -1.984375 C 1.015625 -2.578125 1.171875 -2.765625 1.671875 -2.765625 C 2.1875 -2.765625 2.34375 -2.5625 2.34375 -2.171875 L 0.984375 -2.171875 Z M 0.96875 -1.984375 "/>
</symbol>
<symbol overflow="visible" id="glyph0-3">
<path style="stroke:none;" d="M 0.125 -4.546875 L 0.125 0 L 0.96875 0 L 0.96875 -0.578125 L 0.640625 -0.453125 C 0.875 -0.09375 1.328125 0.140625 1.765625 0.140625 C 2.59375 0.140625 3.328125 -0.71875 3.328125 -1.765625 C 3.328125 -2.78125 2.625 -3.59375 1.796875 -3.59375 C 1.359375 -3.59375 0.921875 -3.375 0.6875 -3.03125 L 1.015625 -2.890625 L 1.015625 -4.734375 L 0.125 -4.734375 Z M 1.703125 -2.765625 C 2.25 -2.765625 2.421875 -2.453125 2.421875 -1.703125 C 2.421875 -1 2.25 -0.6875 1.703125 -0.6875 C 1.15625 -0.6875 1.015625 -0.984375 1.015625 -1.734375 C 1.015625 -2.46875 1.15625 -2.765625 1.703125 -2.765625 Z M 1.703125 -2.765625 "/>
</symbol>
<symbol overflow="visible" id="glyph0-4">
<path style="stroke:none;" d="M 1.03125 -4.734375 L 0.28125 -4.734375 L 0.28125 0 L 3.390625 0 L 3.390625 -0.859375 L 1.234375 -0.859375 L 1.234375 -4.734375 Z M 1.03125 -4.734375 "/>
</symbol>
<symbol overflow="visible" id="glyph0-5">
<path style="stroke:none;" d="M 1.625 -3.59375 C 0.75 -3.59375 0.015625 -2.78125 0.015625 -1.734375 C 0.015625 -0.671875 0.75 0.140625 1.640625 0.140625 C 2.53125 0.140625 3.25 -0.671875 3.25 -1.703125 C 3.25 -2.796875 2.546875 -3.59375 1.625 -3.59375 Z M 1.640625 -2.765625 C 2.203125 -2.765625 2.34375 -2.484375 2.34375 -1.703125 C 2.34375 -0.96875 2.1875 -0.6875 1.640625 -0.6875 C 1.078125 -0.6875 0.9375 -0.96875 0.9375 -1.734375 C 0.9375 -2.484375 1.078125 -2.765625 1.640625 -2.765625 Z M 1.640625 -2.765625 "/>
</symbol>
<symbol overflow="visible" id="glyph0-6">
<path style="stroke:none;" d="M 2.21875 -3.328125 L 2.21875 -2.875 L 2.5625 -3 C 2.296875 -3.375 1.890625 -3.59375 1.5 -3.59375 C 0.734375 -3.59375 0.015625 -2.703125 0.015625 -1.703125 C 0.015625 -1.171875 0.203125 -0.65625 0.46875 -0.34375 C 0.703125 -0.0625 1.140625 0.140625 1.46875 0.140625 C 1.84375 0.140625 2.25 -0.078125 2.515625 -0.484375 L 2.171875 -0.609375 L 2.171875 -0.4375 C 2.171875 0.390625 2.140625 0.53125 1.515625 0.53125 C 1.09375 0.53125 1.0625 0.546875 0.984375 0 L 0.109375 0 C 0.15625 0.765625 0.828125 1.3125 1.5 1.3125 C 1.96875 1.3125 2.484375 1.109375 2.6875 0.859375 C 2.921875 0.5625 3.078125 0.046875 3.078125 -0.703125 L 3.078125 -3.5 L 2.21875 -3.5 Z M 1.546875 -2.765625 C 2.078125 -2.765625 2.171875 -2.515625 2.171875 -1.703125 C 2.171875 -0.953125 2.0625 -0.6875 1.546875 -0.6875 C 1.03125 -0.6875 0.921875 -0.953125 0.921875 -1.734375 C 0.921875 -2.5 1.03125 -2.765625 1.546875 -2.765625 Z M 1.546875 -2.765625 "/>
</symbol>
<symbol overflow="visible" id="glyph0-7">
<path style="stroke:none;" d=""/>
</symbol>
<symbol overflow="visible" id="glyph0-8">
<path style="stroke:none;" d="M 1.328125 -1.953125 L 1.609375 -1.953125 C 2.203125 -1.953125 2.296875 -1.875 2.296875 -1.359375 C 2.296875 -0.828125 2.171875 -0.6875 1.609375 -0.6875 C 1.03125 -0.6875 0.953125 -0.796875 0.90625 -1.59375 L -0.015625 -1.59375 C 0.015625 -1.078125 0.140625 -0.71875 0.234375 -0.53125 C 0.453125 -0.125 1.015625 0.140625 1.59375 0.140625 C 2.46875 0.140625 3.234375 -0.5625 3.234375 -1.375 C 3.234375 -1.90625 2.828125 -2.390625 2.3125 -2.5625 L 2.3125 -2.203125 C 2.71875 -2.359375 3.109375 -2.84375 3.109375 -3.265625 C 3.109375 -4 2.421875 -4.609375 1.609375 -4.609375 C 0.75 -4.609375 0.109375 -3.96875 0.078125 -2.875 L 1 -2.875 C 1.015625 -3.3125 0.96875 -3.34375 1.03125 -3.46875 C 1.15625 -3.703125 1.296875 -3.796875 1.625 -3.796875 C 2.09375 -3.796875 2.171875 -3.703125 2.171875 -3.25 C 2.171875 -2.953125 2.265625 -2.953125 2.03125 -2.84375 C 1.890625 -2.796875 1.703125 -2.765625 1.125 -2.75 L 1.125 -1.953125 Z M 1.328125 -1.953125 "/>
</symbol>
<symbol overflow="visible" id="glyph0-9">
<path style="stroke:none;" d="M 1.140625 -0.984375 L 0.328125 -0.984375 L 0.328125 0 L 1.34375 0 L 1.34375 -0.984375 Z M 1.140625 -0.984375 "/>
</symbol>
<symbol overflow="visible" id="glyph0-10">
<path style="stroke:none;" d="M 1.765625 -1.203125 L 1.765625 0 L 2.6875 0 L 2.6875 -1.015625 L 3.3125 -1.015625 L 3.3125 -1.859375 L 2.6875 -1.859375 L 2.6875 -4.609375 L 2 -4.609375 L -0.03125 -1.796875 L -0.03125 -1.015625 L 1.765625 -1.015625 Z M 1.96875 -1.859375 L 0.984375 -1.859375 L 2.09375 -3.40625 L 1.765625 -3.53125 L 1.765625 -1.859375 Z M 1.96875 -1.859375 "/>
</symbol>
<symbol overflow="visible" id="glyph1-0">
<path style="stroke:none;" d=""/>
</symbol>
<symbol overflow="visible" id="glyph1-1">
<path style="stroke:none;" d="M 2.203125 -5.96875 C 1.671875 -5.96875 1.078125 -5.703125 0.78125 -5.296875 C 0.40625 -4.8125 0.171875 -3.9375 0.171875 -2.890625 C 0.171875 -0.96875 0.984375 0.1875 2.203125 0.1875 C 3.40625 0.1875 4.21875 -0.984375 4.21875 -2.84375 C 4.21875 -3.953125 3.984375 -4.796875 3.609375 -5.296875 C 3.3125 -5.703125 2.734375 -5.96875 2.203125 -5.96875 Z M 2.203125 -5.046875 C 2.953125 -5.046875 3.15625 -4.4375 3.15625 -2.90625 C 3.15625 -1.296875 2.96875 -0.703125 2.1875 -0.703125 C 1.4375 -0.703125 1.234375 -1.34375 1.234375 -2.890625 C 1.234375 -4.4375 1.4375 -5.046875 2.203125 -5.046875 Z M 2.203125 -5.046875 "/>
</symbol>
<symbol overflow="visible" id="glyph1-2">
<path style="stroke:none;" d="M 1.53125 -1.140625 L 0.515625 -1.140625 L 0.515625 0 L 1.703125 0 L 1.703125 -1.140625 Z M 1.53125 -1.140625 "/>
</symbol>
<symbol overflow="visible" id="glyph1-3">
<path style="stroke:none;" d="M 1.890625 -4.1875 L 1.890625 0 L 2.9375 0 L 2.9375 -5.96875 L 2.1875 -5.96875 C 1.890625 -4.953125 1.90625 -4.984375 0.640625 -4.828125 L 0.640625 -4.046875 L 1.890625 -4.046875 Z M 1.890625 -4.1875 "/>
</symbol>
<symbol overflow="visible" id="glyph1-4">
<path style="stroke:none;" d="M 4.046875 -1 L 1.25 -1 C 1.296875 -1.3125 1.5 -1.5 2.203125 -1.90625 L 3 -2.34375 C 3.796875 -2.765625 4.25 -3.46875 4.25 -4.15625 C 4.25 -4.625 4.015625 -5.171875 3.671875 -5.484375 C 3.34375 -5.78125 2.8125 -5.96875 2.265625 -5.96875 C 1.546875 -5.96875 0.890625 -5.6875 0.578125 -5.1875 C 0.390625 -4.890625 0.234375 -4.4375 0.21875 -3.703125 L 1.25 -3.703125 C 1.296875 -4.234375 1.28125 -4.359375 1.390625 -4.546875 C 1.5625 -4.890625 1.828125 -5.0625 2.25 -5.0625 C 2.890625 -5.0625 3.1875 -4.75 3.1875 -4.140625 C 3.1875 -3.703125 2.984375 -3.421875 2.484375 -3.125 L 1.75 -2.71875 C 0.5625 -2.046875 0.15625 -1.40625 0.09375 0 L 4.21875 0 L 4.21875 -1 Z M 4.046875 -1 "/>
</symbol>
<symbol overflow="visible" id="glyph1-5">
<path style="stroke:none;" d="M 1.765625 -2.59375 L 1.859375 -2.59375 L 2.15625 -2.609375 C 2.921875 -2.609375 3.15625 -2.40625 3.15625 -1.734375 C 3.15625 -1.015625 2.890625 -0.75 2.15625 -0.75 C 1.390625 -0.75 1.171875 -0.96875 1.125 -1.953125 L 0.078125 -1.953125 C 0.109375 -1.34375 0.25 -0.9375 0.390625 -0.6875 C 0.671875 -0.140625 1.359375 0.1875 2.125 0.1875 C 3.296875 0.1875 4.21875 -0.65625 4.21875 -1.734375 C 4.21875 -2.453125 3.765625 -3.015625 3.09375 -3.234375 L 3.09375 -2.9375 C 3.609375 -3.15625 4.046875 -3.703125 4.046875 -4.265625 C 4.046875 -5.234375 3.234375 -5.96875 2.15625 -5.96875 C 1.015625 -5.96875 0.21875 -5.203125 0.203125 -3.84375 L 1.234375 -3.84375 C 1.25 -4.34375 1.234375 -4.421875 1.3125 -4.59375 C 1.484375 -4.90625 1.71875 -5.0625 2.15625 -5.0625 C 2.78125 -5.0625 2.984375 -4.84375 2.984375 -4.234375 C 2.984375 -3.84375 3.015625 -3.75 2.703125 -3.625 C 2.515625 -3.546875 2.265625 -3.515625 1.59375 -3.5 L 1.59375 -2.59375 Z M 1.765625 -2.59375 "/>
</symbol>
<symbol overflow="visible" id="glyph1-6">
<path style="stroke:none;" d="M 2.4375 -1.515625 L 2.4375 0 L 3.484375 0 L 3.484375 -1.359375 L 4.328125 -1.359375 L 4.328125 -2.296875 L 3.484375 -2.296875 L 3.484375 -5.96875 L 2.71875 -5.96875 L 0.046875 -2.28125 L 0.046875 -1.359375 L 2.4375 -1.359375 Z M 2.609375 -2.296875 L 1.140625 -2.296875 L 2.734375 -4.515625 L 2.4375 -4.625 L 2.4375 -2.296875 Z M 2.609375 -2.296875 "/>
</symbol>
<symbol overflow="visible" id="glyph1-7">
<path style="stroke:none;" d="M 3.8125 -5.96875 L 0.734375 -5.96875 L 0.265625 -2.578125 L 1.1875 -2.578125 C 1.546875 -3.015625 1.703125 -3.109375 2.15625 -3.109375 C 2.90625 -3.109375 3.203125 -2.75 3.203125 -1.90625 C 3.203125 -1.09375 2.90625 -0.75 2.140625 -0.75 C 1.53125 -0.75 1.3125 -0.90625 1.109375 -1.703125 L 0.078125 -1.703125 C 0.203125 -1.078125 0.34375 -0.75 0.5 -0.53125 C 0.828125 -0.109375 1.515625 0.1875 2.15625 0.1875 C 3.296875 0.1875 4.265625 -0.796875 4.265625 -2 C 4.265625 -3.125 3.359375 -4.046875 2.265625 -4.046875 C 1.875 -4.046875 1.4375 -3.890625 1.4375 -3.890625 L 1.59375 -4.96875 L 3.96875 -4.96875 L 3.96875 -5.96875 Z M 3.8125 -5.96875 "/>
</symbol>
<symbol overflow="visible" id="glyph2-0">
<path style="stroke:none;" d=""/>
</symbol>
<symbol overflow="visible" id="glyph2-1">
<path style="stroke:none;" d="M -7.421875 -0.390625 L 0 -0.390625 L 0 -1.4375 L -0.796875 -1.4375 L -0.703125 -1.1875 C -0.09375 -1.578125 0.234375 -2.21875 0.234375 -2.953125 C 0.234375 -4.328125 -1.03125 -5.375 -2.765625 -5.375 C -4.46875 -5.375 -5.65625 -4.375 -5.65625 -2.984375 C -5.65625 -2.265625 -5.34375 -1.65625 -4.765625 -1.265625 L -4.65625 -1.515625 L -7.5625 -1.515625 L -7.5625 -0.390625 Z M -4.609375 -2.828125 C -4.609375 -3.765625 -3.9375 -4.203125 -2.6875 -4.203125 C -1.484375 -4.203125 -0.8125 -3.734375 -0.8125 -2.828125 C -0.8125 -1.9375 -1.484375 -1.515625 -2.703125 -1.515625 C -3.9375 -1.515625 -4.609375 -1.9375 -4.609375 -2.828125 Z M -4.609375 -2.828125 "/>
</symbol>
<symbol overflow="visible" id="glyph2-2">
<path style="stroke:none;" d="M -5.515625 -1.5 L -5.515625 -0.515625 L 0 -0.515625 L 0 -1.640625 L -5.515625 -1.640625 Z M -7.5625 -1.5 L -7.5625 -0.515625 L -6.234375 -0.515625 L -6.234375 -1.640625 L -7.5625 -1.640625 Z M -7.5625 -1.5 "/>
</symbol>
<symbol overflow="visible" id="glyph2-3">
<path style="stroke:none;" d="M -5.515625 -2.546875 L -5.515625 -1.8125 L -6.953125 -1.8125 L -6.953125 -0.703125 L -5.515625 -0.703125 L -5.515625 0.015625 L -4.5625 0.015625 L -4.5625 -0.703125 L -0.734375 -0.703125 C -0.1875 -0.703125 0.234375 -1.203125 0.234375 -1.859375 C 0.234375 -2.078125 0.203125 -2.265625 0.140625 -2.6875 L -0.84375 -2.6875 C -0.78125 -2.421875 -0.765625 -2.3125 -0.765625 -2.140625 C -0.765625 -1.78125 -0.734375 -1.8125 -1.09375 -1.8125 L -4.5625 -1.8125 L -4.5625 -2.6875 L -5.515625 -2.6875 Z M -5.515625 -2.546875 "/>
</symbol>
<symbol overflow="visible" id="glyph2-4">
<path style="stroke:none;" d="M -3.90625 -4.515625 C -4.9375 -4.515625 -5.65625 -3.6875 -5.65625 -2.484375 C -5.65625 -1.265625 -4.890625 -0.3125 -3.921875 -0.3125 C -3.09375 -0.3125 -2.578125 -0.890625 -2.28125 -2.125 L -2.09375 -2.90625 C -1.953125 -3.484375 -1.875 -3.5625 -1.5 -3.5625 C -1 -3.5625 -0.8125 -3.234375 -0.8125 -2.5 C -0.8125 -2.046875 -0.90625 -1.765625 -1.125 -1.5625 C -1.265625 -1.4375 -1.3125 -1.40625 -1.828125 -1.34375 L -1.828125 -0.1875 C -0.484375 -0.234375 0.234375 -1.0625 0.234375 -2.4375 C 0.234375 -3.75 -0.546875 -4.734375 -1.5625 -4.734375 C -2.34375 -4.734375 -2.90625 -4.15625 -3.15625 -3.109375 L -3.34375 -2.3125 C -3.515625 -1.625 -3.59375 -1.484375 -3.953125 -1.484375 C -4.453125 -1.484375 -4.625 -1.765625 -4.625 -2.453125 C -4.625 -3.125 -4.453125 -3.328125 -3.78125 -3.34375 L -3.78125 -4.515625 Z M -3.90625 -4.515625 "/>
</symbol>
<symbol overflow="visible" id="glyph3-0">
<path style="stroke:none;" d=""/>
</symbol>
<symbol overflow="visible" id="glyph3-1">
<path style="stroke:none;" d="M 3.421875 -2.234375 L 11.328125 -2.234375 L 11.328125 -3.09375 L 3.890625 -3.09375 L 3.890625 -4.34375 L 11.609375 -4.34375 L 11.609375 -5.21875 L 1.203125 -5.21875 L 1.203125 0 L 11.953125 0 L 11.953125 -0.859375 L 3.890625 -0.859375 L 3.890625 -2.234375 Z M 3.421875 -2.234375 "/>
</symbol>
<symbol overflow="visible" id="glyph4-0">
<path style="stroke:none;" d=""/>
</symbol>
<symbol overflow="visible" id="glyph4-1">
<path style="stroke:none;" d="M 1.515625 0 L 6.265625 0 C 9.390625 0 11.34375 -2.96875 11.34375 -7.859375 C 11.34375 -12.71875 9.40625 -15.6875 6.265625 -15.6875 L 1.453125 -15.6875 L 1.453125 0 Z M 3.125 -1.765625 L 3.125 -13.921875 L 6 -13.921875 C 8.4375 -13.921875 9.6875 -11.828125 9.6875 -7.828125 C 9.6875 -3.84375 8.4375 -1.765625 6 -1.765625 Z M 3.125 -1.765625 "/>
</symbol>
<symbol overflow="visible" id="glyph5-0">
<path style="stroke:none;" d=""/>
</symbol>
<symbol overflow="visible" id="glyph5-1">
<path style="stroke:none;" d="M 10.453125 -5.03125 L 5.796875 -5.03125 L 5.796875 -3.734375 L 9.0625 -3.734375 L 9.0625 -3.625 C 9.0625 -2.03125 7.828125 -1 5.859375 -1 C 4.78125 -1 3.90625 -1.296875 3.265625 -1.875 C 2.5625 -2.515625 2.1875 -3.5 2.1875 -4.609375 C 2.1875 -6.8125 3.515625 -8.140625 5.796875 -8.140625 C 7.421875 -8.140625 8.421875 -7.5625 8.75 -6.265625 L 10.484375 -6.265625 C 10.078125 -8.234375 8.265625 -9.421875 5.8125 -9.421875 C 4.5 -9.421875 3.296875 -9.09375 2.453125 -8.515625 C 1.203125 -7.65625 0.46875 -6.15625 0.46875 -4.546875 C 0.46875 -1.78125 2.671875 0.28125 5.5625 0.28125 C 7.03125 0.28125 8.296875 -0.203125 9.15625 -1 L 9.4375 0.046875 L 10.609375 0.046875 L 10.609375 -5.03125 Z M 10.453125 -5.03125 "/>
</symbol>
<symbol overflow="visible" id="glyph6-0">
<path style="stroke:none;" d=""/>
</symbol>
<symbol overflow="visible" id="glyph6-1">
<path style="stroke:none;" d="M 1.515625 0 L 6.265625 0 C 9.390625 0 11.484375 -1.921875 11.484375 -4.859375 C 11.484375 -7.78125 9.40625 -9.703125 6.265625 -9.703125 L 1.328125 -9.703125 L 1.328125 0 Z M 3.25 -1.1875 L 3.25 -8.375 L 6 -8.375 C 8.4375 -8.375 9.546875 -7.25 9.546875 -4.84375 C 9.546875 -2.4375 8.4375 -1.328125 6 -1.328125 L 3.25 -1.328125 Z M 3.25 -1.1875 "/>
</symbol>
<symbol overflow="visible" id="glyph7-0">
<path style="stroke:none;" d=""/>
</symbol>
<symbol overflow="visible" id="glyph7-1">
<path style="stroke:none;" d="M 3.671875 -12.265625 L 10.640625 -12.265625 L 10.640625 -15.296875 L 3.671875 -15.296875 L 3.671875 -23.90625 L 11.609375 -23.90625 L 11.609375 -26.921875 L 1.796875 -26.921875 L 1.796875 0 L 3.671875 0 Z M 3.671875 -12.265625 "/>
</symbol>
<symbol overflow="visible" id="glyph8-0">
<path style="stroke:none;" d=""/>
</symbol>
<symbol overflow="visible" id="glyph8-1">
<path style="stroke:none;" d="M 6.890625 -0.203125 L 11.125 -4.203125 L 8.25 -4.203125 L 4.84375 -0.78125 L 6.125 -0.78125 L 2.484375 -4.203125 L -0.375 -4.203125 L 4.21875 0 L 6.65625 0 Z M 6.890625 -0.203125 "/>
</symbol>
<symbol overflow="visible" id="glyph9-0">
<path style="stroke:none;" d=""/>
</symbol>
<symbol overflow="visible" id="glyph9-1">
<path style="stroke:none;" d="M 6.6875 -1.34375 L 8.046875 0 L 10.875 0 L 6.515625 -4.203125 L 3.84375 -4.203125 L -0.5625 0 L 2.1875 0 L 3.375 -1.140625 L 6.890625 -1.140625 Z M 6.90625 -1.953125 L 4.15625 -1.953125 L 5.796875 -3.484375 L 4.5625 -3.484375 L 6.0625 -1.953125 Z M 6.90625 -1.953125 "/>
</symbol>
<symbol overflow="visible" id="glyph10-0">
<path style="stroke:none;" d=""/>
</symbol>
<symbol overflow="visible" id="glyph10-1">
<path style="stroke:none;" d="M 10.453125 -4.34375 L 5.78125 -4.34375 L 5.78125 -3.21875 L 9.046875 -3.21875 L 9.046875 -3.125 C 9.046875 -1.75 7.828125 -0.890625 5.859375 -0.890625 C 4.78125 -0.890625 3.90625 -1.140625 3.265625 -1.640625 C 2.5625 -2.1875 2.203125 -3.015625 2.203125 -3.96875 C 2.203125 -5.859375 3.515625 -6.984375 5.796875 -6.984375 C 7.421875 -6.984375 8.40625 -6.515625 8.75 -5.390625 L 10.5 -5.390625 C 10.09375 -7.09375 8.265625 -8.125 5.8125 -8.125 C 4.5 -8.125 3.296875 -7.84375 2.453125 -7.34375 C 1.203125 -6.59375 0.453125 -5.3125 0.453125 -3.921875 C 0.453125 -1.53125 2.671875 0.25 5.5625 0.25 C 7.03125 0.25 8.296875 -0.1875 9.140625 -0.84375 L 9.4375 0.046875 L 10.625 0.046875 L 10.625 -4.34375 Z M 10.453125 -4.34375 "/>
</symbol>
<symbol overflow="visible" id="glyph11-0">
<path style="stroke:none;" d=""/>
</symbol>
<symbol overflow="visible" id="glyph11-1">
<path style="stroke:none;" d="M 1.515625 0 L 6.265625 0 C 9.390625 0 11.3125 -4.671875 11.3125 -12.34375 C 11.3125 -19.984375 9.40625 -24.65625 6.265625 -24.65625 L 1.515625 -24.65625 Z M 3.078125 -2.765625 L 3.078125 -21.875 L 6 -21.875 C 8.4375 -21.875 9.734375 -18.59375 9.734375 -12.3125 C 9.734375 -6.046875 8.4375 -2.765625 6 -2.765625 Z M 3.078125 -2.765625 "/>
</symbol>
<symbol overflow="visible" id="glyph12-0">
<path style="stroke:none;" d=""/>
</symbol>
<symbol overflow="visible" id="glyph12-1">
<path style="stroke:none;" d="M 6.75 -0.1875 L 10.953125 -4.734375 L 8.328125 -4.734375 L 4.953125 -0.859375 L 6 -0.859375 L 2.40625 -4.734375 L -0.203125 -4.734375 L 4.296875 0 L 6.578125 0 Z M 6.75 -0.1875 "/>
</symbol>
<symbol overflow="visible" id="glyph13-0">
<path style="stroke:none;" d=""/>
</symbol>
<symbol overflow="visible" id="glyph13-1">
<path style="stroke:none;" d="M 10.59375 -0.34375 L 9.671875 -0.640625 C 10.25 -0.890625 10.890625 -1.546875 10.890625 -2.1875 C 10.890625 -3.421875 8.359375 -4.46875 5.421875 -4.46875 C 2.484375 -4.46875 -0.03125 -3.421875 -0.03125 -2.171875 C -0.03125 -0.921875 2.484375 0.125 5.421875 0.125 C 6.453125 0.125 7.65625 -0.015625 8.015625 -0.109375 L 9.625 0.421875 L 10.953125 -0.234375 Z M 6.3125 -1.484375 L 5.296875 -1 L 6.140625 -0.71875 C 6.484375 -0.78125 6.03125 -0.75 5.421875 -0.75 C 3.25 -0.75 2.375 -1.1875 2.375 -2.171875 C 2.375 -3.15625 3.25 -3.609375 5.421875 -3.609375 C 7.59375 -3.609375 8.484375 -3.15625 8.484375 -2.171875 C 8.484375 -1.65625 8.296875 -1.40625 7.859375 -1.21875 L 6.609375 -1.625 Z M 6.3125 -1.484375 "/>
</symbol>
<symbol overflow="visible" id="glyph14-0">
<path style="stroke:none;" d=""/>
</symbol>
<symbol overflow="visible" id="glyph14-1">
<path style="stroke:none;" d="M 9.046875 -2.171875 L 9.046875 0 L 11.8125 0 L 11.8125 -4.734375 L 9.046875 -4.734375 L 9.046875 -2.84375 L 3.640625 -2.84375 L 3.640625 -4.734375 L 0.875 -4.734375 L 0.875 0 L 3.640625 0 L 3.640625 -1.984375 L 9.046875 -1.984375 Z M 9.046875 -2.171875 "/>
</symbol>
<symbol overflow="visible" id="glyph15-0">
<path style="stroke:none;" d=""/>
</symbol>
<symbol overflow="visible" id="glyph15-1">
<path style="stroke:none;" d="M 3.671875 -1.984375 L 11.28125 -1.984375 L 11.28125 -2.84375 L 4.3125 -2.84375 L 4.3125 -3.875 L 12.25 -3.875 L 12.25 -4.734375 L 1.140625 -4.734375 L 1.140625 0 L 4.3125 0 L 4.3125 -1.984375 Z M 3.671875 -1.984375 "/>
</symbol>
<symbol overflow="visible" id="glyph16-0">
<path style="stroke:none;" d=""/>
</symbol>
<symbol overflow="visible" id="glyph16-1">
<path style="stroke:none;" d="M 10.203125 -15.34375 C 10.203125 -16.828125 10.140625 -17.25 9.875 -18.25 C 9.1875 -20.75 7.734375 -22.0625 5.625 -22.0625 C 2.890625 -22.0625 1.203125 -19.625 1.203125 -15.6875 C 1.203125 -13.046875 2 -11.375 3.640625 -10.625 L 6.734375 -9.203125 C 8.328125 -8.484375 9.03125 -7.390625 9.03125 -5.6875 C 9.03125 -4.53125 8.671875 -3.328125 8.140625 -2.6875 C 7.640625 -2.0625 6.859375 -1.75 5.84375 -1.75 C 4.484375 -1.75 3.578125 -2.328125 2.984375 -3.578125 C 2.515625 -4.53125 2.3125 -5.5625 2.328125 -6.90625 L 0.828125 -6.90625 C 0.84375 -4.90625 1.0625 -3.609375 1.5625 -2.40625 C 2.40625 -0.359375 3.84375 0.6875 5.75 0.6875 C 7.234375 0.6875 8.453125 0.09375 9.25 -0.984375 C 10.09375 -2.140625 10.625 -4.078125 10.625 -5.953125 C 10.625 -8.640625 9.671875 -10.609375 7.96875 -11.40625 L 4.84375 -12.859375 C 3.34375 -13.578125 2.78125 -14.421875 2.78125 -16.078125 C 2.78125 -18.28125 3.90625 -19.75 5.578125 -19.75 C 7.5625 -19.75 8.671875 -18.203125 8.6875 -15.34375 Z M 10.203125 -15.34375 "/>
</symbol>
</g>
</defs>
<g id="surface1">
<g style="fill:rgb(0%,0%,0%);fill-opacity:1;">
  <use xlink:href="#glyph0-1" x="93.315975" y="78.000308"/>
  <use xlink:href="#glyph0-2" x="98.979979" y="78.000308"/>
  <use xlink:href="#glyph0-3" x="102.315982" y="78.000308"/>
  <use xlink:href="#glyph0-4" x="105.651985" y="78.000308"/>
  <use xlink:href="#glyph0-5" x="108.987987" y="78.000308"/>
  <use xlink:href="#glyph0-6" x="112.32399" y="78.000308"/>
  <use xlink:href="#glyph0-5" x="115.659993" y="78.000308"/>
  <use xlink:href="#glyph0-7" x="118.995995" y="78.000308"/>
  <use xlink:href="#glyph0-8" x="120.663997" y="78.000308"/>
  <use xlink:href="#glyph0-9" x="123.999999" y="78.000308"/>
  <use xlink:href="#glyph0-10" x="125.668001" y="78.000308"/>
</g>
<path style="fill:none;stroke-width:2.08333;stroke-linecap:butt;stroke-linejoin:miter;stroke:rgb(0%,0%,0%);stroke-opacity:1;stroke-miterlimit:10;" d="M 110.416667 83.333333 L 131.25 83.333333 L 131.25 308.333333 " transform="matrix(0.24,0,0,-0.24,0,80)"/>
<g style="fill:rgb(0%,0%,0%);fill-opacity:1;">
  <use xlink:href="#glyph1-1" x="14.880912" y="62.928086"/>
  <use xlink:href="#glyph1-2" x="19.328915" y="62.928086"/>
  <use xlink:href="#glyph1-1" x="21.552917" y="62.928086"/>
</g>
<path style="fill:none;stroke-width:2.08333;stroke-linecap:butt;stroke-linejoin:miter;stroke:rgb(0%,0%,0%);stroke-opacity:1;stroke-miterlimit:10;" d="M 110.416667 83.333333 L 131.25 83.333333 " transform="matrix(0.24,0,0,-0.24,0,80)"/>
<g style="fill:rgb(0%,0%,0%);fill-opacity:1;">
  <use xlink:href="#glyph1-3" x="14.880912" y="50.433076"/>
  <use xlink:href="#glyph1-2" x="19.328915" y="50.433076"/>
  <use xlink:href="#glyph1-1" x="21.552917" y="50.433076"/>
</g>
<path style="fill:none;stroke-width:2.08333;stroke-linecap:butt;stroke-linejoin:miter;stroke:rgb(0%,0%,0%);stroke-opacity:1;stroke-miterlimit:10;" d="M 110.416667 135.400391 L 131.25 135.400391 " transform="matrix(0.24,0,0,-0.24,0,80)"/>
<g style="fill:rgb(0%,0%,0%);fill-opacity:1;">
  <use xlink:href="#glyph1-4" x="14.880912" y="37.939066"/>
  <use xlink:href="#glyph1-2" x="19.328915" y="37.939066"/>
  <use xlink:href="#glyph1-1" x="21.552917" y="37.939066"/>
</g>
<path style="fill:none;stroke-width:2.08333;stroke-linecap:butt;stroke-linejoin:miter;stroke:rgb(0%,0%,0%);stroke-opacity:1;stroke-miterlimit:10;" d="M 110.416667 187.451172 L 131.25 187.451172 " transform="matrix(0.24,0,0,-0.24,0,80)"/>
<g style="fill:rgb(0%,0%,0%);fill-opacity:1;">
  <use xlink:href="#glyph1-5" x="14.880912" y="25.444956"/>
  <use xlink:href="#glyph1-2" x="19.328915" y="25.444956"/>
  <use xlink:href="#glyph1-1" x="21.552917" y="25.444956"/>
</g>
<path style="fill:none;stroke-width:2.08333;stroke-linecap:butt;stroke-linejoin:miter;stroke:rgb(0%,0%,0%);stroke-opacity:1;stroke-miterlimit:10;" d="M 110.416667 239.518229 L 131.25 239.518229 " transform="matrix(0.24,0,0,-0.24,0,80)"/>
<g style="fill:rgb(0%,0%,0%);fill-opacity:1;">
  <use xlink:href="#glyph1-6" x="14.880912" y="12.949946"/>
  <use xlink:href="#glyph1-2" x="19.328915" y="12.949946"/>
  <use xlink:href="#glyph1-1" x="21.552917" y="12.949946"/>
</g>
<path style="fill:none;stroke-width:2.08333;stroke-linecap:butt;stroke-linejoin:miter;stroke:rgb(0%,0%,0%);stroke-opacity:1;stroke-miterlimit:10;" d="M 110.416667 291.56901 L 131.25 291.56901 " transform="matrix(0.24,0,0,-0.24,0,80)"/>
<path style="fill:none;stroke-width:2.08333;stroke-linecap:butt;stroke-linejoin:miter;stroke:rgb(0%,0%,0%);stroke-opacity:1;stroke-miterlimit:10;" d="M 131.25 83.333333 L 120.833333 83.333333 " transform="matrix(0.24,0,0,-0.24,0,80)"/>
<path style="fill:none;stroke-width:2.08333;stroke-linecap:butt;stroke-linejoin:miter;stroke:rgb(0%,0%,0%);stroke-opacity:1;stroke-miterlimit:10;" d="M 131.25 93.75 L 120.833333 93.75 " transform="matrix(0.24,0,0,-0.24,0,80)"/>
<path style="fill:none;stroke-width:2.08333;stroke-linecap:butt;stroke-linejoin:miter;stroke:rgb(0%,0%,0%);stroke-opacity:1;stroke-miterlimit:10;" d="M 131.25 104.150391 L 120.833333 104.150391 " transform="matrix(0.24,0,0,-0.24,0,80)"/>
<path style="fill:none;stroke-width:2.08333;stroke-linecap:butt;stroke-linejoin:miter;stroke:rgb(0%,0%,0%);stroke-opacity:1;stroke-miterlimit:10;" d="M 131.25 114.567057 L 120.833333 114.567057 " transform="matrix(0.24,0,0,-0.24,0,80)"/>
<path style="fill:none;stroke-width:2.08333;stroke-linecap:butt;stroke-linejoin:miter;stroke:rgb(0%,0%,0%);stroke-opacity:1;stroke-miterlimit:10;" d="M 131.25 124.983724 L 120.833333 124.983724 " transform="matrix(0.24,0,0,-0.24,0,80)"/>
<path style="fill:none;stroke-width:2.08333;stroke-linecap:butt;stroke-linejoin:miter;stroke:rgb(0%,0%,0%);stroke-opacity:1;stroke-miterlimit:10;" d="M 131.25 135.400391 L 120.833333 135.400391 " transform="matrix(0.24,0,0,-0.24,0,80)"/>
<path style="fill:none;stroke-width:2.08333;stroke-linecap:butt;stroke-linejoin:miter;stroke:rgb(0%,0%,0%);stroke-opacity:1;stroke-miterlimit:10;" d="M 131.25 145.800781 L 120.833333 145.800781 " transform="matrix(0.24,0,0,-0.24,0,80)"/>
<path style="fill:none;stroke-width:2.08333;stroke-linecap:butt;stroke-linejoin:miter;stroke:rgb(0%,0%,0%);stroke-opacity:1;stroke-miterlimit:10;" d="M 131.25 156.217448 L 120.833333 156.217448 " transform="matrix(0.24,0,0,-0.24,0,80)"/>
<path style="fill:none;stroke-width:2.08333;stroke-linecap:butt;stroke-linejoin:miter;stroke:rgb(0%,0%,0%);stroke-opacity:1;stroke-miterlimit:10;" d="M 131.25 166.634115 L 120.833333 166.634115 " transform="matrix(0.24,0,0,-0.24,0,80)"/>
<path style="fill:none;stroke-width:2.08333;stroke-linecap:butt;stroke-linejoin:miter;stroke:rgb(0%,0%,0%);stroke-opacity:1;stroke-miterlimit:10;" d="M 131.25 177.050781 L 120.833333 177.050781 " transform="matrix(0.24,0,0,-0.24,0,80)"/>
<path style="fill:none;stroke-width:2.08333;stroke-linecap:butt;stroke-linejoin:miter;stroke:rgb(0%,0%,0%);stroke-opacity:1;stroke-miterlimit:10;" d="M 131.25 187.451172 L 120.833333 187.451172 " transform="matrix(0.24,0,0,-0.24,0,80)"/>
<path style="fill:none;stroke-width:2.08333;stroke-linecap:butt;stroke-linejoin:miter;stroke:rgb(0%,0%,0%);stroke-opacity:1;stroke-miterlimit:10;" d="M 131.25 197.867839 L 120.833333 197.867839 " transform="matrix(0.24,0,0,-0.24,0,80)"/>
<path style="fill:none;stroke-width:2.08333;stroke-linecap:butt;stroke-linejoin:miter;stroke:rgb(0%,0%,0%);stroke-opacity:1;stroke-miterlimit:10;" d="M 131.25 208.284505 L 120.833333 208.284505 " transform="matrix(0.24,0,0,-0.24,0,80)"/>
<path style="fill:none;stroke-width:2.08333;stroke-linecap:butt;stroke-linejoin:miter;stroke:rgb(0%,0%,0%);stroke-opacity:1;stroke-miterlimit:10;" d="M 131.25 218.684896 L 120.833333 218.684896 " transform="matrix(0.24,0,0,-0.24,0,80)"/>
<path style="fill:none;stroke-width:2.08333;stroke-linecap:butt;stroke-linejoin:miter;stroke:rgb(0%,0%,0%);stroke-opacity:1;stroke-miterlimit:10;" d="M 131.25 229.101562 L 120.833333 229.101562 " transform="matrix(0.24,0,0,-0.24,0,80)"/>
<path style="fill:none;stroke-width:2.08333;stroke-linecap:butt;stroke-linejoin:miter;stroke:rgb(0%,0%,0%);stroke-opacity:1;stroke-miterlimit:10;" d="M 131.25 239.518229 L 120.833333 239.518229 " transform="matrix(0.24,0,0,-0.24,0,80)"/>
<path style="fill:none;stroke-width:2.08333;stroke-linecap:butt;stroke-linejoin:miter;stroke:rgb(0%,0%,0%);stroke-opacity:1;stroke-miterlimit:10;" d="M 131.25 249.91862 L 120.833333 249.91862 " transform="matrix(0.24,0,0,-0.24,0,80)"/>
<path style="fill:none;stroke-width:2.08333;stroke-linecap:butt;stroke-linejoin:miter;stroke:rgb(0%,0%,0%);stroke-opacity:1;stroke-miterlimit:10;" d="M 131.25 260.335286 L 120.833333 260.335286 " transform="matrix(0.24,0,0,-0.24,0,80)"/>
<path style="fill:none;stroke-width:2.08333;stroke-linecap:butt;stroke-linejoin:miter;stroke:rgb(0%,0%,0%);stroke-opacity:1;stroke-miterlimit:10;" d="M 131.25 270.751953 L 120.833333 270.751953 " transform="matrix(0.24,0,0,-0.24,0,80)"/>
<path style="fill:none;stroke-width:2.08333;stroke-linecap:butt;stroke-linejoin:miter;stroke:rgb(0%,0%,0%);stroke-opacity:1;stroke-miterlimit:10;" d="M 131.25 281.152344 L 120.833333 281.152344 " transform="matrix(0.24,0,0,-0.24,0,80)"/>
<path style="fill:none;stroke-width:2.08333;stroke-linecap:butt;stroke-linejoin:miter;stroke:rgb(0%,0%,0%);stroke-opacity:1;stroke-miterlimit:10;" d="M 131.25 291.56901 L 120.833333 291.56901 " transform="matrix(0.24,0,0,-0.24,0,80)"/>
<path style="fill:none;stroke-width:2.08333;stroke-linecap:butt;stroke-linejoin:miter;stroke:rgb(0%,0%,0%);stroke-opacity:1;stroke-miterlimit:10;" d="M 131.25 301.985677 L 120.833333 301.985677 " transform="matrix(0.24,0,0,-0.24,0,80)"/>
<g style="fill:rgb(0%,0%,0%);fill-opacity:1;">
  <use xlink:href="#glyph2-1" x="11.851909" y="40.779669"/>
  <use xlink:href="#glyph2-2" x="11.851909" y="35.219664"/>
  <use xlink:href="#glyph2-3" x="11.851909" y="32.999662"/>
  <use xlink:href="#glyph2-4" x="11.851909" y="30.21966"/>
</g>
<path style="fill:none;stroke-width:2.08333;stroke-linecap:butt;stroke-linejoin:miter;stroke:rgb(0%,0%,0%);stroke-opacity:1;stroke-miterlimit:10;" d="M 133.333333 83.333333 L 178.336589 83.333333 M 155.826823 83.333333 L 155.826823 78.125 " transform="matrix(0.24,0,0,-0.24,0,80)"/>
<g style="fill:rgb(0%,0%,100%);fill-opacity:1;">
  <use xlink:href="#glyph3-1" x="30.813725" y="59.499684"/>
</g>
<g style="fill:rgb(0%,0%,100%);fill-opacity:1;">
  <use xlink:href="#glyph4-1" x="30.990925" y="54.104379"/>
</g>
<path style="fill:none;stroke-width:2.08333;stroke-linecap:butt;stroke-linejoin:miter;stroke:rgb(0%,0%,0%);stroke-opacity:1;stroke-miterlimit:10;" d="M 178.336589 83.333333 L 223.339844 83.333333 M 200.830078 83.333333 L 200.830078 78.125 " transform="matrix(0.24,0,0,-0.24,0,80)"/>
<g style="fill:rgb(0%,50.193787%,0%);fill-opacity:1;">
  <use xlink:href="#glyph5-1" x="42.651634" y="59.215583"/>
</g>
<g style="fill:rgb(0%,0%,100%);fill-opacity:1;">
  <use xlink:href="#glyph6-1" x="41.790933" y="49.564976"/>
</g>
<path style="fill:none;stroke-width:2.08333;stroke-linecap:butt;stroke-linejoin:miter;stroke:rgb(0%,0%,0%);stroke-opacity:1;stroke-miterlimit:10;" d="M 223.339844 83.333333 L 268.326823 83.333333 M 245.833333 83.333333 L 245.833333 78.125 " transform="matrix(0.24,0,0,-0.24,0,80)"/>
<g style="fill:rgb(0%,0%,0%);fill-opacity:1;">
  <use xlink:href="#glyph7-1" x="52.296642" y="59.499684"/>
</g>
<path style="fill:none;stroke-width:2.08333;stroke-linecap:butt;stroke-linejoin:miter;stroke:rgb(0%,0%,0%);stroke-opacity:1;stroke-miterlimit:10;" d="M 268.326823 83.333333 L 313.330078 83.333333 M 290.836589 83.333333 L 290.836589 78.125 " transform="matrix(0.24,0,0,-0.24,0,80)"/>
<g style="fill:rgb(0%,0%,0%);fill-opacity:1;">
  <use xlink:href="#glyph8-1" x="64.422252" y="59.499684"/>
</g>
<g style="fill:rgb(0%,50.193787%,0%);fill-opacity:1;">
  <use xlink:href="#glyph9-1" x="64.638852" y="55.19658"/>
</g>
<g style="fill:rgb(0%,50.193787%,0%);fill-opacity:1;">
  <use xlink:href="#glyph10-1" x="64.251651" y="50.649677"/>
</g>
<path style="fill:none;stroke-width:2.08333;stroke-linecap:butt;stroke-linejoin:miter;stroke:rgb(0%,0%,0%);stroke-opacity:1;stroke-miterlimit:10;" d="M 313.330078 83.333333 L 358.333333 83.333333 M 335.839844 83.333333 L 335.839844 72.916667 " transform="matrix(0.24,0,0,-0.24,0,80)"/>
<g style="fill:rgb(0%,0%,0%);fill-opacity:1;">
  <use xlink:href="#glyph1-7" x="78.375963" y="70.500302"/>
</g>
<g style="fill:rgb(0%,0%,100%);fill-opacity:1;">
  <use xlink:href="#glyph11-1" x="74.190959" y="59.499684"/>
</g>
<path style="fill:none;stroke-width:2.08333;stroke-linecap:butt;stroke-linejoin:miter;stroke:rgb(0%,0%,0%);stroke-opacity:1;stroke-miterlimit:10;" d="M 358.333333 83.333333 L 403.336589 83.333333 M 380.826823 83.333333 L 380.826823 78.125 " transform="matrix(0.24,0,0,-0.24,0,80)"/>
<g style="fill:rgb(0%,0%,0%);fill-opacity:1;">
  <use xlink:href="#glyph7-1" x="84.696668" y="59.499684"/>
</g>
<path style="fill:none;stroke-width:2.08333;stroke-linecap:butt;stroke-linejoin:miter;stroke:rgb(0%,0%,0%);stroke-opacity:1;stroke-miterlimit:10;" d="M 403.336589 83.333333 L 448.339844 83.333333 M 425.830078 83.333333 L 425.830078 78.125 " transform="matrix(0.24,0,0,-0.24,0,80)"/>
<g style="fill:rgb(0%,0%,0%);fill-opacity:1;">
  <use xlink:href="#glyph12-1" x="96.822277" y="59.499684"/>
</g>
<g style="fill:rgb(0%,0%,100%);fill-opacity:1;">
  <use xlink:href="#glyph13-1" x="96.771677" y="54.299379"/>
</g>
<g style="fill:rgb(0%,50.193787%,0%);fill-opacity:1;">
  <use xlink:href="#glyph14-1" x="95.850077" y="49.743076"/>
</g>
<g style="fill:rgb(0%,0%,0%);fill-opacity:1;">
  <use xlink:href="#glyph15-1" x="95.496676" y="44.864372"/>
</g>
<path style="fill:none;stroke-width:2.08333;stroke-linecap:butt;stroke-linejoin:miter;stroke:rgb(0%,0%,0%);stroke-opacity:1;stroke-miterlimit:10;" d="M 448.339844 83.333333 L 493.326823 83.333333 M 470.833333 83.333333 L 470.833333 78.125 " transform="matrix(0.24,0,0,-0.24,0,80)"/>
<g style="fill:rgb(0%,50.193787%,0%);fill-opacity:1;">
  <use xlink:href="#glyph16-1" x="107.279086" y="58.814383"/>
</g>
<path style="fill:none;stroke-width:2.08333;stroke-linecap:butt;stroke-linejoin:miter;stroke:rgb(0%,0%,0%);stroke-opacity:1;stroke-miterlimit:10;" d="M 493.326823 83.333333 L 538.330078 83.333333 M 515.836589 83.333333 L 515.836589 78.125 " transform="matrix(0.24,0,0,-0.24,0,80)"/>
<g style="fill:rgb(0%,50.193787%,0%);fill-opacity:1;">
  <use xlink:href="#glyph16-1" x="118.079094" y="58.814383"/>
</g>
</g>
</svg>
