<?xml version="1.0" encoding="UTF-8"?>
<svg xmlns="http://www.w3.org/2000/svg" xmlns:xlink="http://www.w3.org/1999/xlink" width="108pt" height="80pt" viewBox="0 0 108 80" version="1.1">
<defs>
<g>
<symbol overflow="visible" id="glyph0-0">
<path style="stroke:none;" d=""/>
</symbol>
<symbol overflow="visible" id="glyph0-1">
<path style="stroke:none;" d="M 4.65625 -0.1875 L 5.8125 -4.734375 L 4.796875 -4.734375 L 3.953125 -1 L 4.34375 -1 L 3.28125 -4.734375 L 2.40625 -4.734375 L 1.375 -1 L 1.765625 -1 L 0.90625 -4.734375 L -0.109375 -4.734375 L 1.109375 0 L 2 0 L 3.03125 -3.78125 L 2.640625 -3.78125 L 3.703125 0 L 4.609375 0 Z M 4.65625 -0.1875 "/>
</symbol>
<symbol overflow="visible" id="glyph0-2">
<path style="stroke:none;" d="M 3.265625 -1.578125 C 3.265625 -2.0625 3.234375 -2.359375 3.140625 -2.59375 C 2.9375 -3.109375 2.265625 -3.59375 1.6875 -3.59375 C 0.796875 -3.59375 0.046875 -2.75 0.046875 -1.703125 C 0.046875 -0.671875 0.78125 0.140625 1.671875 0.140625 C 2.390625 0.140625 3.078125 -0.453125 3.234375 -1.3125 L 2.375 -1.3125 C 2.171875 -0.71875 2.09375 -0.6875 1.6875 -0.6875 C 1.375 -0.6875 1.234375 -0.78125 1.0625 -1.03125 C 0.9375 -1.21875 0.953125 -1.265625 0.953125 -1.40625 L 3.265625 -1.40625 Z M 0.96875 -1.984375 C 1.015625 -2.578125 1.171875 -2.765625 1.671875 -2.765625 C 2.1875 -2.765625 2.34375 -2.5625 2.34375 -2.171875 L 0.984375 -2.171875 Z M 0.96875 -1.984375 "/>
</symbol>
<symbol overflow="visible" id="glyph0-3">
<path style="stroke:none;" d="M 0.125 -4.546875 L 0.125 0 L 0.96875 0 L 0.96875 -0.578125 L 0.640625 -0.453125 C 0.875 -0.09375 1.328125 0.140625 1.765625 0.140625 C 2.59375 0.140625 3.328125 -0.71875 3.328125 -1.765625 C 3.328125 -2.78125 2.625 -3.59375 1.796875 -3.59375 C 1.359375 -3.59375 0.921875 -3.375 0.6875 -3.03125 L 1.015625 -2.890625 L 1.015625 -4.734375 L 0.125 -4.734375 Z M 1.703125 -2.765625 C 2.25 -2.765625 2.421875 -2.453125 2.421875 -1.703125 C 2.421875 -1 2.25 -0.6875 1.703125 -0.6875 C 1.15625 -0.6875 1.015625 -0.984375 1.015625 -1.734375 C 1.015625 -2.46875 1.15625 -2.765625 1.703125 -2.765625 Z M 1.703125 -2.765625 "/>
</symbol>
<symbol overflow="visible" id="glyph0-4">
<path style="stroke:none;" d="M 1.03125 -4.734375 L 0.28125 -4.734375 L 0.28125 0 L 3.390625 0 L 3.390625 -0.859375 L 1.234375 -0.859375 L 1.234375 -4.734375 Z M 1.03125 -4.734375 "/>
</symbol>
<symbol overflow="visible" id="glyph0-5">
<path style="stroke:none;" d="M 1.625 -3.59375 C 0.75 -3.59375 0.015625 -2.78125 0.015625 -1.734375 C 0.015625 -0.671875 0.75 0.140625 1.640625 0.140625 C 2.53125 0.140625 3.25 -0.671875 3.25 -1.703125 C 3.25 -2.796875 2.546875 -3.59375 1.625 -3.59375 Z M 1.640625 -2.765625 C 2.203125 -2.765625 2.34375 -2.484375 2.34375 -1.703125 C 2.34375 -0.96875 2.1875 -0.6875 1.640625 -0.6875 C 1.078125 -0.6875 0.9375 -0.96875 0.9375 -1.734375 C 0.9375 -2.484375 1.078125 -2.765625 1.640625 -2.765625 Z M 1.640625 -2.765625 "/>
</symbol>
<symbol overflow="visible" id="glyph0-6">
<path style="stroke:none;" d="M 2.21875 -3.328125 L 2.21875 -2.875 L 2.5625 -3 C 2.296875 -3.375 1.890625 -3.59375 1.5 -3.59375 C 0.734375 -3.59375 0.015625 -2.703125 0.015625 -1.703125 C 0.015625 -1.171875 0.203125 -0.65625 0.46875 -0.34375 C 0.703125 -0.0625 1.140625 0.140625 1.46875 0.140625 C 1.84375 0.140625 2.25 -0.078125 2.515625 -0.484375 L 2.171875 -0.609375 L 2.171875 -0.4375 C 2.171875 0.390625 2.140625 0.53125 1.515625 0.53125 C 1.09375 0.53125 1.0625 0.546875 0.984375 0 L 0.109375 0 C 0.15625 0.765625 0.828125 1.3125 1.5 1.3125 C 1.96875 1.3125 2.484375 1.109375 2.6875 0.859375 C 2.921875 0.5625 3.078125 0.046875 3.078125 -0.703125 L 3.078125 -3.5 L 2.21875 -3.5 Z M 1.546875 -2.765625 C 2.078125 -2.765625 2.171875 -2.515625 2.171875 -1.703125 C 2.171875 -0.953125 2.0625 -0.6875 1.546875 -0.6875 C 1.03125 -0.6875 0.921875 -0.953125 0.921875 -1.734375 C 0.921875 -2.5 1.03125 -2.765625 1.546875 -2.765625 Z M 1.546875 -2.765625 "/>
</symbol>
<symbol overflow="visible" id="glyph0-7">
<path style="stroke:none;" d=""/>
</symbol>
<symbol overflow="visible" id="glyph0-8">
<path style="stroke:none;" d="M 1.328125 -1.953125 L 1.609375 -1.953125 C 2.203125 -1.953125 2.296875 -1.875 2.296875 -1.359375 C 2.296875 -0.828125 2.171875 -0.6875 1.609375 -0.6875 C 1.03125 -0.6875 0.953125 -0.796875 0.90625 -1.59375 L -0.015625 -1.59375 C 0.015625 -1.078125 0.140625 -0.71875 0.234375 -0.53125 C 0.453125 -0.125 1.015625 0.140625 1.59375 0.140625 C 2.46875 0.140625 3.234375 -0.5625 3.234375 -1.375 C 3.234375 -1.90625 2.828125 -2.390625 2.3125 -2.5625 L 2.3125 -2.203125 C 2.71875 -2.359375 3.109375 -2.84375 3.109375 -3.265625 C 3.109375 -4 2.421875 -4.609375 1.609375 -4.609375 C 0.75 -4.609375 0.109375 -3.96875 0.078125 -2.875 L 1 -2.875 C 1.015625 -3.3125 0.96875 -3.34375 1.03125 -3.46875 C 1.15625 -3.703125 1.296875 -3.796875 1.625 -3.796875 C 2.09375 -3.796875 2.171875 -3.703125 2.171875 -3.25 C 2.171875 -2.953125 2.265625 -2.953125 2.03125 -2.84375 C 1.890625 -2.796875 1.703125 -2.765625 1.125 -2.75 L 1.125 -1.953125 Z M 1.328125 -1.953125 "/>
</symbol>
<symbol overflow="visible" id="glyph0-9">
<path style="stroke:none;" d="M 1.140625 -0.984375 L 0.328125 -0.984375 L 0.328125 0 L 1.34375 0 L 1.34375 -0.984375 Z M 1.140625 -0.984375 "/>
</symbol>
<symbol overflow="visible" id="glyph0-10">
<path style="stroke:none;" d="M 1.765625 -1.203125 L 1.765625 0 L 2.6875 0 L 2.6875 -1.015625 L 3.3125 -1.015625 L 3.3125 -1.859375 L 2.6875 -1.859375 L 2.6875 -4.609375 L 2 -4.609375 L -0.03125 -1.796875 L -0.03125 -1.015625 L 1.765625 -1.015625 Z M 1.96875 -1.859375 L 0.984375 -1.859375 L 2.09375 -3.40625 L 1.765625 -3.53125 L 1.765625 -1.859375 Z M 1.96875 -1.859375 "/>
</symbol>
<symbol overflow="visible" id="glyph1-0">
<path style="stroke:none;" d=""/>
</symbol>
<symbol overflow="visible" id="glyph1-1">
<path style="stroke:none;" d="M 2.203125 -5.96875 C 1.671875 -5.96875 1.078125 -5.703125 0.78125 -5.296875 C 0.40625 -4.8125 0.171875 -3.9375 0.171875 -2.890625 C 0.171875 -0.96875 0.984375 0.1875 2.203125 0.1875 C 3.40625 0.1875 4.21875 -0.984375 4.21875 -2.84375 C 4.21875 -3.953125 3.984375 -4.796875 3.609375 -5.296875 C 3.3125 -5.703125 2.734375 -5.96875 2.203125 -5.96875 Z M 2.203125 -5.046875 C 2.953125 -5.046875 3.15625 -4.4375 3.15625 -2.90625 C 3.15625 -1.296875 2.96875 -0.703125 2.1875 -0.703125 C 1.4375 -0.703125 1.234375 -1.34375 1.234375 -2.890625 C 1.234375 -4.4375 1.4375 -5.046875 2.203125 -5.046875 Z M 2.203125 -5.046875 "/>
</symbol>
<symbol overflow="visible" id="glyph1-2">
<path style="stroke:none;" d="M 1.53125 -1.140625 L 0.515625 -1.140625 L 0.515625 0 L 1.703125 0 L 1.703125 -1.140625 Z M 1.53125 -1.140625 "/>
</symbol>
<symbol overflow="visible" id="glyph1-3">
<path style="stroke:none;" d="M 1.890625 -4.1875 L 1.890625 0 L 2.9375 0 L 2.9375 -5.96875 L 2.1875 -5.96875 C 1.890625 -4.953125 1.90625 -4.984375 0.640625 -4.828125 L 0.640625 -4.046875 L 1.890625 -4.046875 Z M 1.890625 -4.1875 "/>
</symbol>
<symbol overflow="visible" id="glyph1-4">
<path style="stroke:none;" d="M 4.046875 -1 L 1.25 -1 C 1.296875 -1.3125 1.5 -1.5 2.203125 -1.90625 L 3 -2.34375 C 3.796875 -2.765625 4.25 -3.46875 4.25 -4.15625 C 4.25 -4.625 4.015625 -5.171875 3.671875 -5.484375 C 3.34375 -5.78125 2.8125 -5.96875 2.265625 -5.96875 C 1.546875 -5.96875 0.890625 -5.6875 0.578125 -5.1875 C 0.390625 -4.890625 0.234375 -4.4375 0.21875 -3.703125 L 1.25 -3.703125 C 1.296875 -4.234375 1.28125 -4.359375 1.390625 -4.546875 C 1.5625 -4.890625 1.828125 -5.0625 2.25 -5.0625 C 2.890625 -5.0625 3.1875 -4.75 3.1875 -4.140625 C 3.1875 -3.703125 2.984375 -3.421875 2.484375 -3.125 L 1.75 -2.71875 C 0.5625 -2.046875 0.15625 -1.40625 0.09375 0 L 4.21875 0 L 4.21875 -1 Z M 4.046875 -1 "/>
</symbol>
<symbol overflow="visible" id="glyph1-5">
<path style="stroke:none;" d="M 1.765625 -2.59375 L 1.859375 -2.59375 L 2.15625 -2.609375 C 2.921875 -2.609375 3.15625 -2.40625 3.15625 -1.734375 C 3.15625 -1.015625 2.890625 -0.75 2.15625 -0.75 C 1.390625 -0.75 1.171875 -0.96875 1.125 -1.953125 L 0.078125 -1.953125 C 0.109375 -1.34375 0.25 -0.9375 0.390625 -0.6875 C 0.671875 -0.140625 1.359375 0.1875 2.125 0.1875 C 3.296875 0.1875 4.21875 -0.65625 4.21875 -1.734375 C 4.21875 -2.453125 3.765625 -3.015625 3.09375 -3.234375 L 3.09375 -2.9375 C 3.609375 -3.15625 4.046875 -3.703125 4.046875 -4.265625 C 4.046875 -5.234375 3.234375 -5.96875 2.15625 -5.96875 C 1.015625 -5.96875 0.21875 -5.203125 0.203125 -3.84375 L 1.234375 -3.84375 C 1.25 -4.34375 1.234375 -4.421875 1.3125 -4.59375 C 1.484375 -4.90625 1.71875 -5.0625 2.15625 -5.0625 C 2.78125 -5.0625 2.984375 -4.84375 2.984375 -4.234375 C 2.984375 -3.84375 3.015625 -3.75 2.703125 -3.625 C 2.515625 -3.546875 2.265625 -3.515625 1.59375 -3.5 L 1.59375 -2.59375 Z M 1.765625 -2.59375 "/>
</symbol>
<symbol overflow="visible" id="glyph1-6">
<path style="stroke:none;" d="M 2.4375 -1.515625 L 2.4375 0 L 3.484375 0 L 3.484375 -1.359375 L 4.328125 -1.359375 L 4.328125 -2.296875 L 3.484375 -2.296875 L 3.484375 -5.96875 L 2.71875 -5.96875 L 0.046875 -2.28125 L 0.046875 -1.359375 L 2.4375 -1.359375 Z M 2.609375 -2.296875 L 1.140625 -2.296875 L 2.734375 -4.515625 L 2.4375 -4.625 L 2.4375 -2.296875 Z M 2.609375 -2.296875 "/>
</symbol>
<symbol overflow="visible" id="glyph1-7">
<path style="stroke:none;" d="M 3.8125 -5.96875 L 0.734375 -5.96875 L 0.265625 -2.578125 L 1.1875 -2.578125 C 1.546875 -3.015625 1.703125 -3.109375 2.15625 -3.109375 C 2.90625 -3.109375 3.203125 -2.75 3.203125 -1.90625 C 3.203125 -1.09375 2.90625 -0.75 2.140625 -0.75 C 1.53125 -0.75 1.3125 -0.90625 1.109375 -1.703125 L 0.078125 -1.703125 C 0.203125 -1.078125 0.34375 -0.75 0.5 -0.53125 C 0.828125 -0.109375 1.515625 0.1875 2.15625 0.1875 C 3.296875 0.1875 4.265625 -0.796875 4.265625 -2 C 4.265625 -3.125 3.359375 -4.046875 2.265625 -4.046875 C 1.875 -4.046875 1.4375 -3.890625 1.4375 -3.890625 L 1.59375 -4.96875 L 3.96875 -4.96875 L 3.96875 -5.96875 Z M 3.8125 -5.96875 "/>
</symbol>
<symbol overflow="visible" id="glyph2-0">
<path style="stroke:none;" d=""/>
</symbol>
<symbol overflow="visible" id="glyph2-1">
<path style="stroke:none;" d="M -7.421875 -0.390625 L 0 -0.390625 L 0 -1.4375 L -0.796875 -1.4375 L -0.703125 -1.1875 C -0.09375 -1.578125 0.234375 -2.21875 0.234375 -2.953125 C 0.234375 -4.328125 -1.03125 -5.375 -2.765625 -5.375 C -4.46875 -5.375 -5.65625 -4.375 -5.65625 -2.984375 C -5.65625 -2.265625 -5.34375 -1.65625 -4.765625 -1.265625 L -4.65625 -1.515625 L -7.5625 -1.515625 L -7.5625 -0.390625 Z M -4.609375 -2.828125 C -4.609375 -3.765625 -3.9375 -4.203125 -2.6875 -4.203125 C -1.484375 -4.203125 -0.8125 -3.734375 -0.8125 -2.828125 C -0.8125 -1.9375 -1.484375 -1.515625 -2.703125 -1.515625 C -3.9375 -1.515625 -4.609375 -1.9375 -4.609375 -2.828125 Z M -4.609375 -2.828125 "/>
</symbol>
<symbol overflow="visible" id="glyph2-2">
<path style="stroke:none;" d="M -5.515625 -1.5 L -5.515625 -0.515625 L 0 -0.515625 L 0 -1.640625 L -5.515625 -1.640625 Z M -7.5625 -1.5 L -7.5625 -0.515625 L -6.234375 -0.515625 L -6.234375 -1.640625 L -7.5625 -1.640625 Z M -7.5625 -1.5 "/>
</symbol>
<symbol overflow="visible" id="glyph2-3">
<path style="stroke:none;" d="M -5.515625 -2.546875 L -5.515625 -1.8125 L -6.953125 -1.8125 L -6.953125 -0.703125 L -5.515625 -0.703125 L -5.515625 0.015625 L -4.5625 0.015625 L -4.5625 -0.703125 L -0.734375 -0.703125 C -0.1875 -0.703125 0.234375 -1.203125 0.234375 -1.859375 C 0.234375 -2.078125 0.203125 -2.265625 0.140625 -2.6875 L -0.84375 -2.6875 C -0.78125 -2.421875 -0.765625 -2.3125 -0.765625 -2.140625 C -0.765625 -1.78125 -0.734375 -1.8125 -1.09375 -1.8125 L -4.5625 -1.8125 L -4.5625 -2.6875 L -5.515625 -2.6875 Z M -5.515625 -2.546875 "/>
</symbol>
<symbol overflow="visible" id="glyph2-4">
<path style="stroke:none;" d="M -3.90625 -4.515625 C -4.9375 -4.515625 -5.65625 -3.6875 -5.65625 -2.484375 C -5.65625 -1.265625 -4.890625 -0.3125 -3.921875 -0.3125 C -3.09375 -0.3125 -2.578125 -0.890625 -2.28125 -2.125 L -2.09375 -2.90625 C -1.953125 -3.484375 -1.875 -3.5625 -1.5 -3.5625 C -1 -3.5625 -0.8125 -3.234375 -0.8125 -2.5 C -0.8125 -2.046875 -0.90625 -1.765625 -1.125 -1.5625 C -1.265625 -1.4375 -1.3125 -1.40625 -1.828125 -1.34375 L -1.828125 -0.1875 C -0.484375 -0.234375 0.234375 -1.0625 0.234375 -2.4375 C 0.234375 -3.75 -0.546875 -4.734375 -1.5625 -4.734375 C -2.34375 -4.734375 -2.90625 -4.15625 -3.15625 -3.109375 L -3.34375 -2.3125 C -3.515625 -1.625 -3.59375 -1.484375 -3.953125 -1.484375 C -4.453125 -1.484375 -4.625 -1.765625 -4.625 -2.453125 C -4.625 -3.125 -4.453125 -3.328125 -3.78125 -3.34375 L -3.78125 -4.515625 Z M -3.90625 -4.515625 "/>
</symbol>
<symbol overflow="visible" id="glyph3-0">
<path style="stroke:none;" d=""/>
</symbol>
<symbol overflow="visible" id="glyph3-1">
<path style="stroke:none;" d="M 3.421875 -11.3125 L 7.6875 -11.3125 C 8.75 -11.3125 9.59375 -11.9375 10.3125 -13.21875 C 11.140625 -14.6875 11.484375 -16.40625 11.484375 -18.859375 C 11.484375 -23.875 9.984375 -26.6875 7.296875 -26.6875 L 1.6875 -26.6875 L 1.6875 0 L 3.421875 0 Z M 3.421875 -14.3125 L 3.421875 -23.6875 L 7.046875 -23.6875 C 8.703125 -23.6875 9.6875 -21.921875 9.6875 -19 C 9.6875 -16.078125 8.703125 -14.3125 7.046875 -14.3125 Z M 3.421875 -14.3125 "/>
</symbol>
<symbol overflow="visible" id="glyph4-0">
<path style="stroke:none;" d=""/>
</symbol>
<symbol overflow="visible" id="glyph4-1">
<path style="stroke:none;" d="M 7.046875 -0.203125 L 11.34375 -3.328125 L 8.15625 -3.328125 L 4.6875 -0.65625 L 6.28125 -0.65625 L 2.578125 -3.328125 L -0.609375 -3.328125 L 4.125 0 L 6.75 0 Z M 7.046875 -0.203125 "/>
</symbol>
<symbol overflow="visible" id="glyph5-0">
<path style="stroke:none;" d=""/>
</symbol>
<symbol overflow="visible" id="glyph5-1">
<path style="stroke:none;" d="M 6.0625 -2.59375 L 11.015625 -2.59375 L 11.015625 -3.328125 L -0.5 -3.328125 L -0.5 -2.59375 L 3.609375 -2.59375 L 3.609375 0 L 6.921875 0 L 6.921875 -2.59375 Z M 6.0625 -2.59375 "/>
</symbol>
<symbol overflow="visible" id="glyph6-0">
<path style="stroke:none;" d=""/>
</symbol>
<symbol overflow="visible" id="glyph6-1">
<path style="stroke:none;" d="M 3.75 -3.328125 L 0.65625 -3.328125 L 0.65625 0 L 12.609375 0 L 12.609375 -0.734375 L 4.828125 -0.734375 L 4.828125 -3.328125 Z M 3.75 -3.328125 "/>
</symbol>
<symbol overflow="visible" id="glyph7-0">
<path style="stroke:none;" d=""/>
</symbol>
<symbol overflow="visible" id="glyph7-1">
<path style="stroke:none;" d="M 3.421875 -2.6875 L 7.6875 -2.6875 C 8.75 -2.6875 9.8125 -2.875 10.546875 -3.1875 C 11.359375 -3.53125 11.8125 -4.03125 11.8125 -4.625 C 11.8125 -5.8125 9.984375 -6.625 7.296875 -6.625 L 1.359375 -6.625 L 1.359375 0 L 3.75 0 L 3.75 -2.6875 Z M 3.75 -3.546875 L 3.75 -5.640625 L 7.046875 -5.640625 C 8.703125 -5.640625 9.34375 -5.359375 9.34375 -4.65625 C 9.34375 -3.953125 8.703125 -3.671875 7.046875 -3.671875 L 3.75 -3.671875 Z M 3.75 -3.546875 "/>
</symbol>
<symbol overflow="visible" id="glyph8-0">
<path style="stroke:none;" d=""/>
</symbol>
<symbol overflow="visible" id="glyph8-1">
<path style="stroke:none;" d="M 3.109375 -1.40625 L 7.125 -1.40625 C 8.515625 -1.40625 8.296875 -1.453125 8.296875 -1.046875 L 8.28125 -0.765625 C 8.28125 -0.5625 8.40625 -0.359375 8.984375 0 L 12.1875 0 L 12.1875 -0.4375 C 11.359375 -0.59375 11.484375 -0.546875 11.453125 -0.984375 C 11.4375 -1.53125 10.28125 -1.90625 10.796875 -1.84375 C 10.921875 -1.859375 11.71875 -2.25 11.71875 -2.625 C 11.71875 -3.1875 9.578125 -3.71875 7.171875 -3.71875 L 0.71875 -3.71875 L 0.71875 0 L 3.953125 0 L 3.953125 -1.40625 Z M 3.953125 -2 L 3.953125 -2.90625 L 6.875 -2.90625 C 7.734375 -2.90625 7.65625 -2.9375 8.046875 -2.84375 C 8.453125 -2.75 8.421875 -2.765625 8.421875 -2.5625 C 8.421875 -2.171875 8.53125 -2.21875 6.875 -2.21875 L 3.953125 -2.21875 Z M 3.953125 -2 "/>
</symbol>
<symbol overflow="visible" id="glyph9-0">
<path style="stroke:none;" d=""/>
</symbol>
<symbol overflow="visible" id="glyph9-1">
<path style="stroke:none;" d="M 10.484375 -4.890625 C 10.484375 -5.34375 10.4375 -5.46875 10.15625 -5.796875 C 9.484375 -6.5625 7.734375 -7.109375 5.625 -7.109375 C 2.890625 -7.109375 0.890625 -6.21875 0.890625 -5 C 0.890625 -4.171875 2 -3.515625 3.640625 -3.296875 L 6.734375 -2.84375 C 8.328125 -2.625 8.71875 -2.421875 8.71875 -1.90625 C 8.71875 -1.546875 8.453125 -1.265625 7.921875 -1.0625 C 7.421875 -0.875 6.859375 -0.828125 5.84375 -0.828125 C 4.484375 -0.828125 3.78125 -0.953125 3.1875 -1.34375 C 2.71875 -1.640625 2.59375 -1.859375 2.625 -2.421875 L 0.515625 -2.421875 C 0.53125 -1.65625 0.84375 -1.15625 1.328125 -0.78125 C 2.1875 -0.140625 3.84375 0.21875 5.75 0.21875 C 7.234375 0.21875 8.65625 -0.015625 9.46875 -0.34375 C 10.296875 -0.703125 10.921875 -1.40625 10.921875 -1.984375 C 10.921875 -2.8125 9.671875 -3.5625 7.96875 -3.8125 L 4.84375 -4.265625 C 3.34375 -4.484375 3.078125 -4.59375 3.078125 -5.109375 C 3.078125 -5.796875 3.90625 -6.109375 5.578125 -6.109375 C 7.5625 -6.109375 8.359375 -5.765625 8.390625 -4.75 L 10.484375 -4.75 Z M 10.484375 -4.890625 "/>
</symbol>
<symbol overflow="visible" id="glyph10-0">
<path style="stroke:none;" d=""/>
</symbol>
<symbol overflow="visible" id="glyph10-1">
<path style="stroke:none;" d="M 3.421875 -2.984375 L 7.6875 -2.984375 C 8.75 -2.984375 9.78125 -3.1875 10.5 -3.53125 C 11.328125 -3.90625 11.75 -4.453125 11.75 -5.09375 C 11.75 -6.421875 9.984375 -7.296875 7.296875 -7.296875 L 1.421875 -7.296875 L 1.421875 0 L 3.6875 0 L 3.6875 -2.984375 Z M 3.6875 -3.90625 L 3.6875 -6.25 L 7.046875 -6.25 C 8.703125 -6.25 9.40625 -5.90625 9.40625 -5.140625 C 9.40625 -4.359375 8.703125 -4.03125 7.046875 -4.03125 L 3.6875 -4.03125 Z M 3.6875 -3.90625 "/>
</symbol>
<symbol overflow="visible" id="glyph11-0">
<path style="stroke:none;" d=""/>
</symbol>
<symbol overflow="visible" id="glyph11-1">
<path style="stroke:none;" d="M 3.671875 -1.96875 L 11.28125 -1.96875 L 11.28125 -2.8125 L 4.3125 -2.8125 L 4.3125 -3.84375 L 12.25 -3.84375 L 12.25 -4.6875 L 1.140625 -4.6875 L 1.140625 0 L 4.3125 0 L 4.3125 -1.96875 Z M 3.671875 -1.96875 "/>
</symbol>
<symbol overflow="visible" id="glyph12-0">
<path style="stroke:none;" d=""/>
</symbol>
<symbol overflow="visible" id="glyph12-1">
<path style="stroke:none;" d="M 3.421875 -7.96875 L 7.6875 -7.96875 C 8.75 -7.96875 9.59375 -8.40625 10.3125 -9.3125 C 11.140625 -10.34375 11.484375 -11.5625 11.484375 -13.28125 C 11.484375 -16.8125 9.984375 -18.8125 7.296875 -18.8125 L 1.6875 -18.8125 L 1.6875 0 L 3.421875 0 Z M 3.421875 -10.09375 L 3.421875 -16.6875 L 7.046875 -16.6875 C 8.703125 -16.6875 9.6875 -15.453125 9.6875 -13.390625 C 9.6875 -11.328125 8.703125 -10.09375 7.046875 -10.09375 Z M 3.421875 -10.09375 "/>
</symbol>
</g>
</defs>
<g id="surface1">
<g style="fill:rgb(0%,0%,0%);fill-opacity:1;">
  <use xlink:href="#glyph0-1" x="60.315948" y="78.000308"/>
  <use xlink:href="#glyph0-2" x="65.979953" y="78.000308"/>
  <use xlink:href="#glyph0-3" x="69.315955" y="78.000308"/>
  <use xlink:href="#glyph0-4" x="72.651958" y="78.000308"/>
  <use xlink:href="#glyph0-5" x="75.987961" y="78.000308"/>
  <use xlink:href="#glyph0-6" x="79.323963" y="78.000308"/>
  <use xlink:href="#glyph0-5" x="82.659966" y="78.000308"/>
  <use xlink:href="#glyph0-7" x="85.995969" y="78.000308"/>
  <use xlink:href="#glyph0-8" x="87.66397" y="78.000308"/>
  <use xlink:href="#glyph0-9" x="90.999973" y="78.000308"/>
  <use xlink:href="#glyph0-10" x="92.667974" y="78.000308"/>
</g>
<path style="fill:none;stroke-width:2.08333;stroke-linecap:butt;stroke-linejoin:miter;stroke:rgb(0%,0%,0%);stroke-opacity:1;stroke-miterlimit:10;" d="M 110.416667 83.333333 L 131.25 83.333333 L 131.25 308.333333 " transform="matrix(0.24,0,0,-0.24,0,80)"/>
<g style="fill:rgb(0%,0%,0%);fill-opacity:1;">
  <use xlink:href="#glyph1-1" x="14.880912" y="62.928086"/>
  <use xlink:href="#glyph1-2" x="19.328915" y="62.928086"/>
  <use xlink:href="#glyph1-1" x="21.552917" y="62.928086"/>
</g>
<path style="fill:none;stroke-width:2.08333;stroke-linecap:butt;stroke-linejoin:miter;stroke:rgb(0%,0%,0%);stroke-opacity:1;stroke-miterlimit:10;" d="M 110.416667 83.333333 L 131.25 83.333333 " transform="matrix(0.24,0,0,-0.24,0,80)"/>
<g style="fill:rgb(0%,0%,0%);fill-opacity:1;">
  <use xlink:href="#glyph1-3" x="14.880912" y="50.433076"/>
  <use xlink:href="#glyph1-2" x="19.328915" y="50.433076"/>
  <use xlink:href="#glyph1-1" x="21.552917" y="50.433076"/>
</g>
<path style="fill:none;stroke-width:2.08333;stroke-linecap:butt;stroke-linejoin:miter;stroke:rgb(0%,0%,0%);stroke-opacity:1;stroke-miterlimit:10;" d="M 110.416667 135.400391 L 131.25 135.400391 " transform="matrix(0.24,0,0,-0.24,0,80)"/>
<g style="fill:rgb(0%,0%,0%);fill-opacity:1;">
  <use xlink:href="#glyph1-4" x="14.880912" y="37.939066"/>
  <use xlink:href="#glyph1-2" x="19.328915" y="37.939066"/>
  <use xlink:href="#glyph1-1" x="21.552917" y="37.939066"/>
</g>
<path style="fill:none;stroke-width:2.08333;stroke-linecap:butt;stroke-linejoin:miter;stroke:rgb(0%,0%,0%);stroke-opacity:1;stroke-miterlimit:10;" d="M 110.416667 187.451172 L 131.25 187.451172 " transform="matrix(0.24,0,0,-0.24,0,80)"/>
<g style="fill:rgb(0%,0%,0%);fill-opacity:1;">
  <use xlink:href="#glyph1-5" x="14.880912" y="25.444956"/>
  <use xlink:href="#glyph1-2" x="19.328915" y="25.444956"/>
  <use xlink:href="#glyph1-1" x="21.552917" y="25.444956"/>
</g>
<path style="fill:none;stroke-width:2.08333;stroke-linecap:butt;stroke-linejoin:miter;stroke:rgb(0%,0%,0%);stroke-opacity:1;stroke-miterlimit:10;" d="M 110.416667 239.518229 L 131.25 239.518229 " transform="matrix(0.24,0,0,-0.24,0,80)"/>
<g style="fill:rgb(0%,0%,0%);fill-opacity:1;">
  <use xlink:href="#glyph1-6" x="14.880912" y="12.949946"/>
  <use xlink:href="#glyph1-2" x="19.328915" y="12.949946"/>
  <use xlink:href="#glyph1-1" x="21.552917" y="12.949946"/>
</g>
<path style="fill:none;stroke-width:2.08333;stroke-linecap:butt;stroke-linejoin:miter;stroke:rgb(0%,0%,0%);stroke-opacity:1;stroke-miterlimit:10;" d="M 110.416667 291.56901 L 131.25 291.56901 " transform="matrix(0.24,0,0,-0.24,0,80)"/>
<path style="fill:none;stroke-width:2.08333;stroke-linecap:butt;stroke-linejoin:miter;stroke:rgb(0%,0%,0%);stroke-opacity:1;stroke-miterlimit:10;" d="M 131.25 83.333333 L 120.833333 83.333333 " transform="matrix(0.24,0,0,-0.24,0,80)"/>
<path style="fill:none;stroke-width:2.08333;stroke-linecap:butt;stroke-linejoin:miter;stroke:rgb(0%,0%,0%);stroke-opacity:1;stroke-miterlimit:10;" d="M 131.25 93.75 L 120.833333 93.75 " transform="matrix(0.24,0,0,-0.24,0,80)"/>
<path style="fill:none;stroke-width:2.08333;stroke-linecap:butt;stroke-linejoin:miter;stroke:rgb(0%,0%,0%);stroke-opacity:1;stroke-miterlimit:10;" d="M 131.25 104.150391 L 120.833333 104.150391 " transform="matrix(0.24,0,0,-0.24,0,80)"/>
<path style="fill:none;stroke-width:2.08333;stroke-linecap:butt;stroke-linejoin:miter;stroke:rgb(0%,0%,0%);stroke-opacity:1;stroke-miterlimit:10;" d="M 131.25 114.567057 L 120.833333 114.567057 " transform="matrix(0.24,0,0,-0.24,0,80)"/>
<path style="fill:none;stroke-width:2.08333;stroke-linecap:butt;stroke-linejoin:miter;stroke:rgb(0%,0%,0%);stroke-opacity:1;stroke-miterlimit:10;" d="M 131.25 124.983724 L 120.833333 124.983724 " transform="matrix(0.24,0,0,-0.24,0,80)"/>
<path style="fill:none;stroke-width:2.08333;stroke-linecap:butt;stroke-linejoin:miter;stroke:rgb(0%,0%,0%);stroke-opacity:1;stroke-miterlimit:10;" d="M 131.25 135.400391 L 120.833333 135.400391 " transform="matrix(0.24,0,0,-0.24,0,80)"/>
<path style="fill:none;stroke-width:2.08333;stroke-linecap:butt;stroke-linejoin:miter;stroke:rgb(0%,0%,0%);stroke-opacity:1;stroke-miterlimit:10;" d="M 131.25 145.800781 L 120.833333 145.800781 " transform="matrix(0.24,0,0,-0.24,0,80)"/>
<path style="fill:none;stroke-width:2.08333;stroke-linecap:butt;stroke-linejoin:miter;stroke:rgb(0%,0%,0%);stroke-opacity:1;stroke-miterlimit:10;" d="M 131.25 156.217448 L 120.833333 156.217448 " transform="matrix(0.24,0,0,-0.24,0,80)"/>
<path style="fill:none;stroke-width:2.08333;stroke-linecap:butt;stroke-linejoin:miter;stroke:rgb(0%,0%,0%);stroke-opacity:1;stroke-miterlimit:10;" d="M 131.25 166.634115 L 120.833333 166.634115 " transform="matrix(0.24,0,0,-0.24,0,80)"/>
<path style="fill:none;stroke-width:2.08333;stroke-linecap:butt;stroke-linejoin:miter;stroke:rgb(0%,0%,0%);stroke-opacity:1;stroke-miterlimit:10;" d="M 131.25 177.050781 L 120.833333 177.050781 " transform="matrix(0.24,0,0,-0.24,0,80)"/>
<path style="fill:none;stroke-width:2.08333;stroke-linecap:butt;stroke-linejoin:miter;stroke:rgb(0%,0%,0%);stroke-opacity:1;stroke-miterlimit:10;" d="M 131.25 187.451172 L 120.833333 187.451172 " transform="matrix(0.24,0,0,-0.24,0,80)"/>
<path style="fill:none;stroke-width:2.08333;stroke-linecap:butt;stroke-linejoin:miter;stroke:rgb(0%,0%,0%);stroke-opacity:1;stroke-miterlimit:10;" d="M 131.25 197.867839 L 120.833333 197.867839 " transform="matrix(0.24,0,0,-0.24,0,80)"/>
<path style="fill:none;stroke-width:2.08333;stroke-linecap:butt;stroke-linejoin:miter;stroke:rgb(0%,0%,0%);stroke-opacity:1;stroke-miterlimit:10;" d="M 131.25 208.284505 L 120.833333 208.284505 " transform="matrix(0.24,0,0,-0.24,0,80)"/>
<path style="fill:none;stroke-width:2.08333;stroke-linecap:butt;stroke-linejoin:miter;stroke:rgb(0%,0%,0%);stroke-opacity:1;stroke-miterlimit:10;" d="M 131.25 218.684896 L 120.833333 218.684896 " transform="matrix(0.24,0,0,-0.24,0,80)"/>
<path style="fill:none;stroke-width:2.08333;stroke-linecap:butt;stroke-linejoin:miter;stroke:rgb(0%,0%,0%);stroke-opacity:1;stroke-miterlimit:10;" d="M 131.25 229.101562 L 120.833333 229.101562 " transform="matrix(0.24,0,0,-0.24,0,80)"/>
<path style="fill:none;stroke-width:2.08333;stroke-linecap:butt;stroke-linejoin:miter;stroke:rgb(0%,0%,0%);stroke-opacity:1;stroke-miterlimit:10;" d="M 131.25 239.518229 L 120.833333 239.518229 " transform="matrix(0.24,0,0,-0.24,0,80)"/>
<path style="fill:none;stroke-width:2.08333;stroke-linecap:butt;stroke-linejoin:miter;stroke:rgb(0%,0%,0%);stroke-opacity:1;stroke-miterlimit:10;" d="M 131.25 249.91862 L 120.833333 249.91862 " transform="matrix(0.24,0,0,-0.24,0,80)"/>
<path style="fill:none;stroke-width:2.08333;stroke-linecap:butt;stroke-linejoin:miter;stroke:rgb(0%,0%,0%);stroke-opacity:1;stroke-miterlimit:10;" d="M 131.25 260.335286 L 120.833333 260.335286 " transform="matrix(0.24,0,0,-0.24,0,80)"/>
<path style="fill:none;stroke-width:2.08333;stroke-linecap:butt;stroke-linejoin:miter;stroke:rgb(0%,0%,0%);stroke-opacity:1;stroke-miterlimit:10;" d="M 131.25 270.751953 L 120.833333 270.751953 " transform="matrix(0.24,0,0,-0.24,0,80)"/>
<path style="fill:none;stroke-width:2.08333;stroke-linecap:butt;stroke-linejoin:miter;stroke:rgb(0%,0%,0%);stroke-opacity:1;stroke-miterlimit:10;" d="M 131.25 281.152344 L 120.833333 281.152344 " transform="matrix(0.24,0,0,-0.24,0,80)"/>
<path style="fill:none;stroke-width:2.08333;stroke-linecap:butt;stroke-linejoin:miter;stroke:rgb(0%,0%,0%);stroke-opacity:1;stroke-miterlimit:10;" d="M 131.25 291.56901 L 120.833333 291.56901 " transform="matrix(0.24,0,0,-0.24,0,80)"/>
<path style="fill:none;stroke-width:2.08333;stroke-linecap:butt;stroke-linejoin:miter;stroke:rgb(0%,0%,0%);stroke-opacity:1;stroke-miterlimit:10;" d="M 131.25 301.985677 L 120.833333 301.985677 " transform="matrix(0.24,0,0,-0.24,0,80)"/>
<g style="fill:rgb(0%,0%,0%);fill-opacity:1;">
  <use xlink:href="#glyph2-1" x="11.851909" y="40.779669"/>
  <use xlink:href="#glyph2-2" x="11.851909" y="35.219664"/>
  <use xlink:href="#glyph2-3" x="11.851909" y="32.999662"/>
  <use xlink:href="#glyph2-4" x="11.851909" y="30.21966"/>
</g>
<path style="fill:none;stroke-width:2.08333;stroke-linecap:butt;stroke-linejoin:miter;stroke:rgb(0%,0%,0%);stroke-opacity:1;stroke-miterlimit:10;" d="M 133.333333 83.333333 L 178.336589 83.333333 M 155.826823 83.333333 L 155.826823 78.125 " transform="matrix(0.24,0,0,-0.24,0,80)"/>
<g style="fill:rgb(0%,50.193787%,0%);fill-opacity:1;">
  <use xlink:href="#glyph3-1" x="30.805325" y="59.499684"/>
</g>
<path style="fill:none;stroke-width:2.08333;stroke-linecap:butt;stroke-linejoin:miter;stroke:rgb(0%,0%,0%);stroke-opacity:1;stroke-miterlimit:10;" d="M 178.336589 83.333333 L 223.339844 83.333333 M 200.830078 83.333333 L 200.830078 78.125 " transform="matrix(0.24,0,0,-0.24,0,80)"/>
<g style="fill:rgb(0%,0%,0%);fill-opacity:1;">
  <use xlink:href="#glyph4-1" x="42.822234" y="59.499684"/>
</g>
<g style="fill:rgb(0%,50.193787%,0%);fill-opacity:1;">
  <use xlink:href="#glyph5-1" x="42.940334" y="56.074981"/>
</g>
<g style="fill:rgb(0%,0%,0%);fill-opacity:1;">
  <use xlink:href="#glyph6-1" x="41.569733" y="52.649378"/>
</g>
<g style="fill:rgb(0%,50.193787%,0%);fill-opacity:1;">
  <use xlink:href="#glyph7-1" x="41.605333" y="49.224675"/>
</g>
<path style="fill:none;stroke-width:2.08333;stroke-linecap:butt;stroke-linejoin:miter;stroke:rgb(0%,0%,0%);stroke-opacity:1;stroke-miterlimit:10;" d="M 223.339844 83.333333 L 268.326823 83.333333 M 245.833333 83.333333 L 245.833333 78.125 " transform="matrix(0.24,0,0,-0.24,0,80)"/>
<g style="fill:rgb(0%,50.193787%,0%);fill-opacity:1;">
  <use xlink:href="#glyph3-1" x="52.405342" y="59.499684"/>
</g>
<path style="fill:none;stroke-width:2.08333;stroke-linecap:butt;stroke-linejoin:miter;stroke:rgb(0%,0%,0%);stroke-opacity:1;stroke-miterlimit:10;" d="M 268.326823 83.333333 L 313.330078 83.333333 M 290.836589 83.333333 L 290.836589 78.125 " transform="matrix(0.24,0,0,-0.24,0,80)"/>
<g style="fill:rgb(0%,0%,100%);fill-opacity:1;">
  <use xlink:href="#glyph8-1" x="63.345051" y="59.499684"/>
</g>
<g style="fill:rgb(0%,50.193787%,0%);fill-opacity:1;">
  <use xlink:href="#glyph9-1" x="64.079151" y="55.51528"/>
</g>
<g style="fill:rgb(0%,50.193787%,0%);fill-opacity:1;">
  <use xlink:href="#glyph10-1" x="63.205351" y="48.183075"/>
</g>
<path style="fill:none;stroke-width:2.08333;stroke-linecap:butt;stroke-linejoin:miter;stroke:rgb(0%,0%,0%);stroke-opacity:1;stroke-miterlimit:10;" d="M 313.330078 83.333333 L 358.333333 83.333333 M 335.839844 83.333333 L 335.839844 72.916667 " transform="matrix(0.24,0,0,-0.24,0,80)"/>
<g style="fill:rgb(0%,0%,0%);fill-opacity:1;">
  <use xlink:href="#glyph1-7" x="78.375963" y="70.500302"/>
</g>
<g style="fill:rgb(0%,0%,0%);fill-opacity:1;">
  <use xlink:href="#glyph11-1" x="73.896659" y="59.499684"/>
</g>
<g style="fill:rgb(0%,50.193787%,0%);fill-opacity:1;">
  <use xlink:href="#glyph12-1" x="74.005359" y="54.67438"/>
</g>
<path style="fill:none;stroke-width:2.08333;stroke-linecap:butt;stroke-linejoin:miter;stroke:rgb(0%,0%,0%);stroke-opacity:1;stroke-miterlimit:10;" d="M 358.333333 83.333333 L 403.336589 83.333333 M 380.826823 83.333333 L 380.826823 78.125 " transform="matrix(0.24,0,0,-0.24,0,80)"/>
<g style="fill:rgb(0%,50.193787%,0%);fill-opacity:1;">
  <use xlink:href="#glyph3-1" x="84.805368" y="59.499684"/>
</g>
</g>
</svg>
